{
  "builders": [{
    "type": "qemu",
    "iso_url": "{{user `mirror`}}/16.04/ubuntu-16.04.3-server-amd64.iso",
    "iso_checksum": "{{user `iso_checksum`}}",
    "iso_checksum_type": "{{user `iso_checksum_type`}}",
    "output_directory": "output-ubuntu-16.04-amd64-{{build_type}}",
    "vm_name": "packer-ubuntu-16.04-amd64",
    "disk_size": "{{user `disk_size`}}",
    "headless": "{{user `headless`}}",
    "http_directory": "http",
    "boot_wait": "5s",
    "boot_command": [
      "<enter><wait>",
      "<f6><esc>",
      "<bs><bs><bs><bs><bs><bs><bs><bs><bs><bs>",
      "<bs><bs><bs><bs><bs><bs><bs><bs><bs><bs>",
      "<bs><bs><bs><bs><bs><bs><bs><bs><bs><bs>",
      "<bs><bs><bs><bs><bs><bs><bs><bs><bs><bs>",
      "<bs><bs><bs><bs><bs><bs><bs><bs><bs><bs>",
      "<bs><bs><bs><bs><bs><bs><bs><bs><bs><bs>",
      "<bs><bs><bs><bs><bs><bs><bs><bs><bs><bs>",
      "<bs><bs><bs><bs><bs><bs><bs><bs><bs><bs>",
      "<bs><bs><bs>",
      "/install/vmlinuz ",
      "initrd=/install/initrd.gz ",
      "net.ifnames=0 ",
      "auto-install/enable=true ",
      "debconf/priority=critical ",
      "preseed/url=http://{{.HTTPIP}}:{{.HTTPPort}}/ubuntu-16.04/preseed.cfg ",
      "<enter>"
    ],
    "ssh_timeout": "{{user `ssh_timeout`}}",
    "ssh_username": "tj",
    "ssh_password": "eulalia",
    "shutdown_command": "sudo systemctl poweroff",
    "qemuargs": [
      ["-m", "{{user `memory`}}"],
      ["-smp", "{{user `cpus`}}"]
    ]
  }],
  "provisioners": [{
    "type": "shell",
    "scripts": [
      "scripts/ubuntu/apt.sh",
      "scripts/ubuntu/ansible.sh",
      "scripts/ubuntu/ssh_key.sh",
      "scripts/ubuntu/cleanup.sh"
    ]
  }],
  "variables": {
    "compression_level": "6",
    "cpus": "1",
    "disk_size": "30000",
    "headless": "false",
    "iso_checksum": "a06cd926f5855d4f21fb4bc9978a35312f815fbda0d0ef7fdc846861f4fc4600",
    "iso_checksum_type": "sha256",
    "memory": "512",
    "mirror": "http://releases.ubuntu.com",
    "ssh_timeout": "120m"
  }
}
